
material Surface000
{

    technique
    {


        pass
        {
            ambient 1 1 1 1
            diffuse 1 1 1 1
            specular 0 0 0 1 51.8
            emissive 0 0 0 1


            texture_unit
            {
                texture HIP_UNDER_MK1.tga
                tex_coord_set 0
                colour_op modulate
            }
        }
    }
}

material Surface001
{

    technique
    {


        pass
        {
            ambient 0.290196 0.290196 0.290196 1
            diffuse 0.290196 0.290196 0.290196 1
            specular 0 0 0 1 51.8
            emissive 0 0 0 1

        }
    }
}
