
material Surface000
{

    technique
    {


        pass
        {
            ambient 1 1 1 1
            diffuse 1 1 1 1
            specular 0 0 0 1 51.8
            emissive 0 0 0 1


            texture_unit
            {
                texture HIP_WHEEL.tga
                tex_coord_set 0
                colour_op modulate
            }
        }
    }
}

material Surface001
{

    technique
    {


        pass
        {
            ambient 0.388235 0.388235 0.388235 1
            diffuse 0.388235 0.388235 0.388235 1
            specular 0 0 0 1 51.8
            emissive 0 0 0 1

        }
    }
}

material Surface002
{

    technique
    {


        pass
        {
            ambient 0.388235 0.388235 0.388235 1
            diffuse 0.388235 0.388235 0.388235 1
            specular 0 0 0 1 51.8
            emissive 0 0 0 1

        }
    }
}

material Surface003
{

    technique
    {


        pass
        {
            ambient 0.152941 0.152941 0.152941 1
            diffuse 0.152941 0.152941 0.152941 1
            specular 0 0 0 1 51.8
            emissive 0 0 0 1

        }
    }
}

material Surface004
{

    technique
    {


        pass
        {
            ambient 0.584314 0.584314 0.584314 1
            diffuse 0.584314 0.584314 0.584314 1
            specular 0 0 0 1 51.8
            emissive 0 0 0 1

        }
    }
}
