
material Surface001
{

    technique
    {


        pass
        {
            ambient 0 0 0 1
            diffuse 0 0 0 1
            specular 0 0 0 1 51.8
            emissive 0 0 0 1

        }
    }
}
