
material Surface000
{

    technique
    {


        pass
        {
            ambient 1 1 1 1
            diffuse 1 1 1 1
            specular 0 0 0 1 51.8
            emissive 0 0 0 1


            texture_unit
            {
                texture MI28_TAIL_BLUR.tga
                tex_coord_set 0
                colour_op modulate
            }
        }
    }
}
