
material Surface000
{

    technique
    {


        pass
        {
            ambient 0 0 0 1
            diffuse 0 0 0 1
            specular 0 0 0 1 51.8
            emissive 0 0 0 1

        }
    }
}

material Surface001
{

    technique
    {


        pass
        {
            ambient 0 0 0 1
            diffuse 0 0 0 1
            specular 0 0 0 1 51.8
            emissive 0 0 0 1

        }
    }
}

material Surface003
{

    technique
    {


        pass
        {
            ambient 0.839216 0.188235 0.152941 1
            diffuse 0.839216 0.188235 0.152941 1
            specular 0 0 0 1 51.8
            emissive 0 0 0 1

        }
    }
}
