
material Surface000
{

    technique
    {


        pass
        {
            ambient 0.74902 0.74902 0.74902 1
            diffuse 0.74902 0.74902 0.74902 1
            specular 0 0 0 1 51.8
            emissive 0 0 0 1

        }
    }
}

material Surface001
{

    technique
    {


        pass
        {
            ambient 0.74902 0.74902 0.74902 1
            diffuse 0.74902 0.74902 0.74902 1
            specular 0 0 0 1 51.8
            emissive 0 0 0 1

        }
    }
}
