
material Surface000
{

    technique
    {


        pass
        {
            ambient 1 1 1 1
            diffuse 1 1 1 1
            specular 0 0 0 1 51.8
            emissive 0 0 0 1


            texture_unit
            {
                texture B8V_POD_SIDE.tga
                tex_coord_set 0
                colour_op modulate
            }
        }
    }
}

material Surface001
{

    technique
    {


        pass
        {
            ambient 1 1 1 1
            diffuse 1 1 1 1
            specular 0 0 0 1 51.8
            emissive 0 0 0 1


            texture_unit
            {
                texture B8V_POD_END.tga
                tex_coord_set 1
                colour_op modulate
            }
        }
    }
}

material Surface002
{

    technique
    {


        pass
        {
            ambient 1 1 1 1
            diffuse 1 1 1 1
            specular 0 0 0 1 51.8
            emissive 0 0 0 1


            texture_unit
            {
                texture B8V_POD_END.tga
                tex_coord_set 2
                colour_op modulate
            }
        }
    }
}

material Surface003
{

    technique
    {


        pass
        {
            ambient 0.74902 0.74902 0.74902 1
            diffuse 0.74902 0.74902 0.74902 1
            specular 0 0 0 1 51.8
            emissive 0 0 0 1

        }
    }
}

material Surface004
{

    technique
    {


        pass
        {
            ambient 0.74902 0.74902 0.74902 1
            diffuse 0.74902 0.74902 0.74902 1
            specular 0 0 0 1 51.8
            emissive 0 0 0 1

        }
    }
}
